…
### Lookup an ASN

I do not have a paid plan for this so I cannot test it

### Country iso2c to name mapping

``` r
country_trans()
```

    ## # A tibble: 250 x 2
    ##    iso2c country_name          
    ##    <chr> <chr>                 
    ##  1 BD    Bangladesh            
    ##  2 BE    Belgium               
    ##  3 BF    Burkina Faso          
    ##  4 BG    Bulgaria              
    ##  5 BA    Bosnia and Herzegovina
    ##  6 BB    Barbados              
    ##  7 WF    Wallis and Futuna     
    ##  8 BL    Saint Barthelemy      
    ##  9 BM    Bermuda               
    ## 10 BN    Brunei                
    ## # ... with 240 more rows
…
